%YAML 1.1
%TAG !u! tag:unity3d.com,2011:
--- !u!114 &11400000
MonoBehaviour:
  m_ObjectHideFlags: 0
  m_CorrespondingSourceObject: {fileID: 0}
  m_PrefabInstance: {fileID: 0}
  m_PrefabAsset: {fileID: 0}
  m_GameObject: {fileID: 0}
  m_Enabled: 1
  m_EditorHideFlags: 0
  m_Script: {fileID: 11500000, guid: c333ccfdd0cbdbc4ca30cef2dd6e6b9b, type: 3}
  m_Name: AudioFilterStream
  m_EditorClassIdentifier: 
  serializedUdonProgramAsset: {fileID: 11400000, guid: 30fd24d32920b4d4baf1630eb1bfcabf,
    type: 2}
  udonAssembly: 
  assemblyError: 
  sourceCsScript: {fileID: 11500000, guid: 7c356caa637db7d4a8cd34e5da29b593, type: 3}
  behaviourSyncMode: 4
  behaviourIDHeapVarName: __refl_const_intnl_udonTypeID
  compileErrors: []
  hasInteractEvent: 0
  serializationData:
    SerializedFormat: 2
    SerializedBytes: 
    ReferencedUnityObjects: []
    SerializedBytesString: 
    Prefab: {fileID: 0}
    PrefabModificationsReferencedUnityObjects: []
    PrefabModifications: []
    SerializationNodes:
    - Name: fieldDefinitions
      Entry: 7
      Data: 0|System.Collections.Generic.Dictionary`2[[System.String, mscorlib],[UdonSharp.Compiler.FieldDefinition,
        UdonSharp.Editor]], mscorlib
    - Name: comparer
      Entry: 7
      Data: 1|System.Collections.Generic.GenericEqualityComparer`1[[System.String,
        mscorlib]], mscorlib
    - Name: 
      Entry: 8
      Data: 
    - Name: 
      Entry: 12
      Data: 9
    - Name: 
      Entry: 7
      Data: 
    - Name: $k
      Entry: 1
      Data: clock
    - Name: $v
      Entry: 7
      Data: 2|UdonSharp.Compiler.FieldDefinition, UdonSharp.Editor
    - Name: fieldSymbol
      Entry: 7
      Data: 3|UdonSharp.Compiler.SymbolDefinition, UdonSharp.Editor
    - Name: internalType
      Entry: 7
      Data: 4|System.RuntimeType, mscorlib
    - Name: 
      Entry: 1
      Data: System.Int32, mscorlib
    - Name: 
      Entry: 8
      Data: 
    - Name: declarationType
      Entry: 3
      Data: 2
    - Name: syncMode
      Entry: 3
      Data: 0
    - Name: symbolResolvedTypeName
      Entry: 1
      Data: SystemInt32
    - Name: symbolOriginalName
      Entry: 1
      Data: clock
    - Name: symbolUniqueName
      Entry: 1
      Data: clock
    - Name: symbolDefaultValue
      Entry: 6
      Data: 
    - Name: 
      Entry: 8
      Data: 
    - Name: fieldAttributes
      Entry: 7
      Data: 5|System.Collections.Generic.List`1[[System.Attribute, mscorlib]], mscorlib
    - Name: 
      Entry: 12
      Data: 1
    - Name: 
      Entry: 7
      Data: 6|System.NonSerializedAttribute, mscorlib
    - Name: 
      Entry: 8
      Data: 
    - Name: 
      Entry: 13
      Data: 
    - Name: 
      Entry: 8
      Data: 
    - Name: userBehaviourSource
      Entry: 6
      Data: 
    - Name: 
      Entry: 8
      Data: 
    - Name: 
      Entry: 8
      Data: 
    - Name: 
      Entry: 7
      Data: 
    - Name: $k
      Entry: 1
      Data: rbuffer
    - Name: $v
      Entry: 7
      Data: 7|UdonSharp.Compiler.FieldDefinition, UdonSharp.Editor
    - Name: fieldSymbol
      Entry: 7
      Data: 8|UdonSharp.Compiler.SymbolDefinition, UdonSharp.Editor
    - Name: internalType
      Entry: 7
      Data: 9|System.RuntimeType, mscorlib
    - Name: 
      Entry: 1
      Data: System.Single[], mscorlib
    - Name: 
      Entry: 8
      Data: 
    - Name: declarationType
      Entry: 3
      Data: 2
    - Name: syncMode
      Entry: 3
      Data: 0
    - Name: symbolResolvedTypeName
      Entry: 1
      Data: SystemSingleArray
    - Name: symbolOriginalName
      Entry: 1
      Data: rbuffer
    - Name: symbolUniqueName
      Entry: 1
      Data: rbuffer
    - Name: symbolDefaultValue
      Entry: 6
      Data: 
    - Name: 
      Entry: 8
      Data: 
    - Name: fieldAttributes
      Entry: 7
      Data: 10|System.Collections.Generic.List`1[[System.Attribute, mscorlib]], mscorlib
    - Name: 
      Entry: 12
      Data: 1
    - Name: 
      Entry: 7
      Data: 11|System.NonSerializedAttribute, mscorlib
    - Name: 
      Entry: 8
      Data: 
    - Name: 
      Entry: 13
      Data: 
    - Name: 
      Entry: 8
      Data: 
    - Name: userBehaviourSource
      Entry: 6
      Data: 
    - Name: 
      Entry: 8
      Data: 
    - Name: 
      Entry: 8
      Data: 
    - Name: 
      Entry: 7
      Data: 
    - Name: $k
      Entry: 1
      Data: wbuffer
    - Name: $v
      Entry: 7
      Data: 12|UdonSharp.Compiler.FieldDefinition, UdonSharp.Editor
    - Name: fieldSymbol
      Entry: 7
      Data: 13|UdonSharp.Compiler.SymbolDefinition, UdonSharp.Editor
    - Name: internalType
      Entry: 7
      Data: 14|System.RuntimeType, mscorlib
    - Name: 
      Entry: 1
      Data: UnityEngine.Color[], UnityEngine.CoreModule
    - Name: 
      Entry: 8
      Data: 
    - Name: declarationType
      Entry: 3
      Data: 2
    - Name: syncMode
      Entry: 3
      Data: 0
    - Name: symbolResolvedTypeName
      Entry: 1
      Data: UnityEngineColorArray
    - Name: symbolOriginalName
      Entry: 1
      Data: wbuffer
    - Name: symbolUniqueName
      Entry: 1
      Data: wbuffer
    - Name: symbolDefaultValue
      Entry: 6
      Data: 
    - Name: 
      Entry: 8
      Data: 
    - Name: fieldAttributes
      Entry: 7
      Data: 15|System.Collections.Generic.List`1[[System.Attribute, mscorlib]], mscorlib
    - Name: 
      Entry: 12
      Data: 1
    - Name: 
      Entry: 7
      Data: 16|System.NonSerializedAttribute, mscorlib
    - Name: 
      Entry: 8
      Data: 
    - Name: 
      Entry: 13
      Data: 
    - Name: 
      Entry: 8
      Data: 
    - Name: userBehaviourSource
      Entry: 6
      Data: 
    - Name: 
      Entry: 8
      Data: 
    - Name: 
      Entry: 8
      Data: 
    - Name: 
      Entry: 7
      Data: 
    - Name: $k
      Entry: 1
      Data: interleave
    - Name: $v
      Entry: 7
      Data: 17|UdonSharp.Compiler.FieldDefinition, UdonSharp.Editor
    - Name: fieldSymbol
      Entry: 7
      Data: 18|UdonSharp.Compiler.SymbolDefinition, UdonSharp.Editor
    - Name: internalType
      Entry: 7
      Data: 19|System.RuntimeType, mscorlib
    - Name: 
      Entry: 1
      Data: System.Boolean, mscorlib
    - Name: 
      Entry: 8
      Data: 
    - Name: declarationType
      Entry: 3
      Data: 2
    - Name: syncMode
      Entry: 3
      Data: 0
    - Name: symbolResolvedTypeName
      Entry: 1
      Data: SystemBoolean
    - Name: symbolOriginalName
      Entry: 1
      Data: interleave
    - Name: symbolUniqueName
      Entry: 1
      Data: interleave
    - Name: symbolDefaultValue
      Entry: 6
      Data: 
    - Name: 
      Entry: 8
      Data: 
    - Name: fieldAttributes
      Entry: 7
      Data: 20|System.Collections.Generic.List`1[[System.Attribute, mscorlib]], mscorlib
    - Name: 
      Entry: 12
      Data: 1
    - Name: 
      Entry: 7
      Data: 21|System.NonSerializedAttribute, mscorlib
    - Name: 
      Entry: 8
      Data: 
    - Name: 
      Entry: 13
      Data: 
    - Name: 
      Entry: 8
      Data: 
    - Name: userBehaviourSource
      Entry: 6
      Data: 
    - Name: 
      Entry: 8
      Data: 
    - Name: 
      Entry: 8
      Data: 
    - Name: 
      Entry: 7
      Data: 
    - Name: $k
      Entry: 1
      Data: attenuation
    - Name: $v
      Entry: 7
      Data: 22|UdonSharp.Compiler.FieldDefinition, UdonSharp.Editor
    - Name: fieldSymbol
      Entry: 7
      Data: 23|UdonSharp.Compiler.SymbolDefinition, UdonSharp.Editor
    - Name: internalType
      Entry: 7
      Data: 24|System.RuntimeType, mscorlib
    - Name: 
      Entry: 1
      Data: System.Single, mscorlib
    - Name: 
      Entry: 8
      Data: 
    - Name: declarationType
      Entry: 3
      Data: 2
    - Name: syncMode
      Entry: 3
      Data: 0
    - Name: symbolResolvedTypeName
      Entry: 1
      Data: SystemSingle
    - Name: symbolOriginalName
      Entry: 1
      Data: attenuation
    - Name: symbolUniqueName
      Entry: 1
      Data: attenuation
    - Name: symbolDefaultValue
      Entry: 6
      Data: 
    - Name: 
      Entry: 8
      Data: 
    - Name: fieldAttributes
      Entry: 7
      Data: 25|System.Collections.Generic.List`1[[System.Attribute, mscorlib]], mscorlib
    - Name: 
      Entry: 12
      Data: 1
    - Name: 
      Entry: 7
      Data: 26|System.NonSerializedAttribute, mscorlib
    - Name: 
      Entry: 8
      Data: 
    - Name: 
      Entry: 13
      Data: 
    - Name: 
      Entry: 8
      Data: 
    - Name: userBehaviourSource
      Entry: 6
      Data: 
    - Name: 
      Entry: 8
      Data: 
    - Name: 
      Entry: 8
      Data: 
    - Name: 
      Entry: 7
      Data: 
    - Name: $k
      Entry: 1
      Data: color
    - Name: $v
      Entry: 7
      Data: 27|UdonSharp.Compiler.FieldDefinition, UdonSharp.Editor
    - Name: fieldSymbol
      Entry: 7
      Data: 28|UdonSharp.Compiler.SymbolDefinition, UdonSharp.Editor
    - Name: internalType
      Entry: 7
      Data: 29|System.RuntimeType, mscorlib
    - Name: 
      Entry: 1
      Data: UnityEngine.Color, UnityEngine.CoreModule
    - Name: 
      Entry: 8
      Data: 
    - Name: declarationType
      Entry: 3
      Data: 2
    - Name: syncMode
      Entry: 3
      Data: 0
    - Name: symbolResolvedTypeName
      Entry: 1
      Data: UnityEngineColor
    - Name: symbolOriginalName
      Entry: 1
      Data: color
    - Name: symbolUniqueName
      Entry: 1
      Data: color
    - Name: symbolDefaultValue
      Entry: 6
      Data: 
    - Name: 
      Entry: 8
      Data: 
    - Name: fieldAttributes
      Entry: 7
      Data: 30|System.Collections.Generic.List`1[[System.Attribute, mscorlib]], mscorlib
    - Name: 
      Entry: 12
      Data: 0
    - Name: 
      Entry: 13
      Data: 
    - Name: 
      Entry: 8
      Data: 
    - Name: userBehaviourSource
      Entry: 6
      Data: 
    - Name: 
      Entry: 8
      Data: 
    - Name: 
      Entry: 8
      Data: 
    - Name: 
      Entry: 7
      Data: 
    - Name: $k
      Entry: 1
      Data: temp
    - Name: $v
      Entry: 7
      Data: 31|UdonSharp.Compiler.FieldDefinition, UdonSharp.Editor
    - Name: fieldSymbol
      Entry: 7
      Data: 32|UdonSharp.Compiler.SymbolDefinition, UdonSharp.Editor
    - Name: internalType
      Entry: 9
      Data: 14
    - Name: declarationType
      Entry: 3
      Data: 2
    - Name: syncMode
      Entry: 3
      Data: 0
    - Name: symbolResolvedTypeName
      Entry: 1
      Data: UnityEngineColorArray
    - Name: symbolOriginalName
      Entry: 1
      Data: temp
    - Name: symbolUniqueName
      Entry: 1
      Data: temp
    - Name: symbolDefaultValue
      Entry: 6
      Data: 
    - Name: 
      Entry: 8
      Data: 
    - Name: fieldAttributes
      Entry: 7
      Data: 33|System.Collections.Generic.List`1[[System.Attribute, mscorlib]], mscorlib
    - Name: 
      Entry: 12
      Data: 0
    - Name: 
      Entry: 13
      Data: 
    - Name: 
      Entry: 8
      Data: 
    - Name: userBehaviourSource
      Entry: 6
      Data: 
    - Name: 
      Entry: 8
      Data: 
    - Name: 
      Entry: 8
      Data: 
    - Name: 
      Entry: 7
      Data: 
    - Name: $k
      Entry: 1
      Data: onAudioFilterReadData
    - Name: $v
      Entry: 7
      Data: 34|UdonSharp.Compiler.FieldDefinition, UdonSharp.Editor
    - Name: fieldSymbol
      Entry: 7
      Data: 35|UdonSharp.Compiler.SymbolDefinition, UdonSharp.Editor
    - Name: internalType
      Entry: 9
      Data: 9
    - Name: declarationType
      Entry: 3
      Data: 2
    - Name: syncMode
      Entry: 3
      Data: 0
    - Name: symbolResolvedTypeName
      Entry: 1
      Data: SystemSingleArray
    - Name: symbolOriginalName
      Entry: 1
      Data: onAudioFilterReadData
    - Name: symbolUniqueName
      Entry: 1
      Data: onAudioFilterReadData
    - Name: symbolDefaultValue
      Entry: 6
      Data: 
    - Name: 
      Entry: 8
      Data: 
    - Name: fieldAttributes
      Entry: 7
      Data: 36|System.Collections.Generic.List`1[[System.Attribute, mscorlib]], mscorlib
    - Name: 
      Entry: 12
      Data: 0
    - Name: 
      Entry: 13
      Data: 
    - Name: 
      Entry: 8
      Data: 
    - Name: userBehaviourSource
      Entry: 6
      Data: 
    - Name: 
      Entry: 8
      Data: 
    - Name: 
      Entry: 8
      Data: 
    - Name: 
      Entry: 7
      Data: 
    - Name: $k
      Entry: 1
      Data: onAudioFilterReadChannels
    - Name: $v
      Entry: 7
      Data: 37|UdonSharp.Compiler.FieldDefinition, UdonSharp.Editor
    - Name: fieldSymbol
      Entry: 7
      Data: 38|UdonSharp.Compiler.SymbolDefinition, UdonSharp.Editor
    - Name: internalType
      Entry: 9
      Data: 4
    - Name: declarationType
      Entry: 3
      Data: 2
    - Name: syncMode
      Entry: 3
      Data: 0
    - Name: symbolResolvedTypeName
      Entry: 1
      Data: SystemInt32
    - Name: symbolOriginalName
      Entry: 1
      Data: onAudioFilterReadChannels
    - Name: symbolUniqueName
      Entry: 1
      Data: onAudioFilterReadChannels
    - Name: symbolDefaultValue
      Entry: 6
      Data: 
    - Name: 
      Entry: 8
      Data: 
    - Name: fieldAttributes
      Entry: 7
      Data: 39|System.Collections.Generic.List`1[[System.Attribute, mscorlib]], mscorlib
    - Name: 
      Entry: 12
      Data: 0
    - Name: 
      Entry: 13
      Data: 
    - Name: 
      Entry: 8
      Data: 
    - Name: userBehaviourSource
      Entry: 6
      Data: 
    - Name: 
      Entry: 8
      Data: 
    - Name: 
      Entry: 8
      Data: 
    - Name: 
      Entry: 13
      Data: 
    - Name: 
      Entry: 8
      Data: 
